	Zogu i Zi	Inxhinieria e Ndertimit	21 Dhjetori	Shkolla Vasil Shanto	Lulishte Cajupi	Kinema Agimi	Bulevardi Deshmoret e Kombit	Shkolla e Baletit	Ministria e Jashtme	Berryli
Zogu i Zi	0									
Inxhinieria e Ndertimit		0								
21 Dhjetori			0							
Shkolla Vasil Shanto				0						
Lulishte Cajupi					0					
Kinema Agimi						0				
Bulevardi Deshmoret e Kombit							0			
Shkolla e Baletit								0		
Ministria e Jashtme									0	
Berryli										0
